{
 "address": "1EgXeoJQo1y4QeSq9tUHS6AzaDWZXJt88T",
 "address_index": 20626065,
 "background-color": "#FFF",
 "clone_root": "template-new",
 "cloned_from": "1HeLLo4uzjaLetFx6NH3PMwFP3qbRbTf3D",
 "description": "",
 "files": {
  "0afe82f7117498ac8c8c860b0b347f4c444b18f3.jpg": {
   "sha512": "e5a892f033de24f39871919852ffac30ed519044dc44edecdd04829037550075",
   "size": 8970
  },
  "14aa1643ab4a505fe2e1ecabc57f4e0ac69cdb8f.jpg": {
   "sha512": "f6d0cfcd9a9e29936601f0f337ecbd496c75c21a8d8665250dcb06b5fadcde40",
   "size": 22475
  },
  "1984c1df74ae7f907f629231301a6d3e770ecec7.png": {
   "sha512": "d5c21321ea04b463d6482a9ae2a2fb38c6a1c20138f38d9589cd80a1d8b311bf",
   "size": 1242
  },
  "32dd83e96f03337d8e19c40d0f08c2a0099f678d.jpg": {
   "sha512": "21305e7d64f48119480fee3f0137ef10fd126eb7c8369afba39b3f65240ec5fe",
   "size": 12808
  },
  "39b1313e19d5d6b19d873d42f9c5d67bde43e850.jpeg": {
   "sha512": "78253abe970bb9e325a7ea5564d27fa3ffafb9782f7dc6f3bb6c97e90c8e8f73",
   "size": 7711
  },
  "3e051f8e9e8a6bfc2369d229a16c320508607128.jpg": {
   "sha512": "d879503d36c762b3b384696fd503c639c4240a9f5d4b5459ec16aae931a4f6e0",
   "size": 15565
  },
  "45532d70bfd772aa83438bcd470f058fb62b8153.jpg": {
   "sha512": "62eb791cb7d1d112849040a9fe241e18a06fc3bd79bab9c59a7a10ce4259fcaa",
   "size": 4220
  },
  "706a9ab6ff3193e2e4841fbf0577fed36a9a63ab.png": {
   "sha512": "75ba8ef1078348805baa4a5ea4aded947737cc8f12b6ce75bdb2d95d6d0d2bce",
   "size": 1573
  },
  "7510f4ee55847d9c39f8a2a142e315fa07385d9e.jpg": {
   "sha512": "8193d98113736898448bc1a844c33d32a057c1e8bd8216929c764066d9aead70",
   "size": 18646
  },
  "7b5686638fde2f4fc99526df4b1213497320aa77.jpeg": {
   "sha512": "58e159e7ba66fa10b929ac43634cda285fb46fdc84a019a35eab9ff121295341",
   "size": 16157
  },
  "81ca2d8c0a06209dbd91af971b50079b90798e6a.jpg": {
   "sha512": "a7720132edacc5ca65edb9589fc3fc528af3cc6c12ffa6a5d8dbd2303a6e4e74",
   "size": 9356
  },
  "87e40eb8f13fcf0aaa4725a3596548d89c72f978.png": {
   "sha512": "840a700a18319dadee0c5fb825ef283bb447f786911029b1f2ff731acbb0b504",
   "size": 2057
  },
  "896ac9f5f47882eaec61a4f4a205e399e52dcb72.png": {
   "sha512": "54b786fcabc303182c6f182a20893e7ed5166e011771db5f4eb325ba87898599",
   "size": 29940
  },
  "a4e5c6d1166caf64783c0ee41f905b71a4b070c6.jpg": {
   "sha512": "c45842c94c65acce2ab6159a11f249ffcf13b8449fbdfd89d4f6675b12e2632f",
   "size": 24827
  },
  "b50ca5fa165a59687fc62e767f0c1fbf96c4f709.jpg": {
   "sha512": "f534e5360022ef76cdfc81111c2708c76db1be15735d05d452a2e375f6c47186",
   "size": 15364
  },
  "bc797fe1753846dd8c1288ccc254da02e1749956.jpg": {
   "sha512": "bde6931108ee2a125e249e69e436caee40fe0561b206d1cd5b6dc3557e0386ff",
   "size": 37598
  },
  "bdeac54a733bb54568f86445d3d49078053b8616.png": {
   "sha512": "319369877ec4a8a017ee3a9b27232428bba7c468cc2b730899d5517a054d6eea",
   "size": 1188
  },
  "c075d9903de4637a310745270695469b9081b170.jpg": {
   "sha512": "7c1f46b7259195910005e620ebdedaf74c33255c677ffddac1d0d685f7080087",
   "size": 7516
  },
  "c8aeebc90afbe266aed81454ed2120e118a3b06d.png": {
   "sha512": "51f01f93ada92a31e868bce52fdb1df7aa10346e476d311a11eec41b14195916",
   "size": 1278
  },
  "d10e7f1ad862ba302c5066e76dbe1aa7a52d4616.png": {
   "sha512": "3ca957f51c0b17c96e626783a10cee6c632623b472fc4e9b0082f9b7e5ac70eb",
   "size": 3489
  },
  "e71742cdcd6ad4a1dbcc5b59c2ee26a61151322e.jpg": {
   "sha512": "7d9900b60b755ddddec24569e3bcbaa590d61f4fbb9e82358b50230fb74fe550",
   "size": 16902
  },
  "e8860247623fe76014329f24b868aadc9312764f.jpg": {
   "sha512": "cd44fb7854fe1bb997f2625a31f45d1a80db48d181a2cd0752dcff4dc1b15639",
   "size": 27374
  },
  "ee12c2ce2bace5a584411c2467993ef78cea2828.png": {
   "sha512": "b4073ef32afc448c9374341ab1d52f27e53b63154909b2d43da7cbbbaa8e62f5",
   "size": 1424
  },
  "f2b01783d32e1bc5a02493bac798427347a4779a.png": {
   "sha512": "de7b69d23365ca76cb18e3e42c29cbef096d5040fe45237cc407a6fe3268c430",
   "size": 1128
  },
  "ff5bcabeddb17f7c67ab3876bec1afc75d8de486.png": {
   "sha512": "288d1815567dce1b78931b203ed8b2e06c6f11c2d0246970d89aa6b50fc1481c",
   "size": 2230
  },
  "index.html": {
   "sha512": "f1acae07e8dee3f53293dcc3ad59daf7de915e7ec93044517f7d70948bbf7f5b",
   "size": 109133
  },
  "js/ZeroFrame.js": {
   "sha512": "156eeae519b9f4c25914431dd93afcedd828e1da2ec80ed0ef0c45f87ad6a76d",
   "size": 3835
  }
 },
 "ignore": "",
 "inner_path": "content.json",
 "modified": 1590577428,
 "postmessage_nonce_security": true,
 "signers_sign": "HL9nU2T2/FCV9aAssZTxJDzCtbrDetgO5JattaAA1l/gCiuc1F4oDxzNrYoLSWb4s2iFEax6s/ToSB+D/7qlXRU=",
 "signs": {
  "1EgXeoJQo1y4QeSq9tUHS6AzaDWZXJt88T": "G3qt8iURlHEzXbsrE8fSLrcAjNVc9iUFpSaCSgdV/XkYVQ2YQwrEz1TIBpxIKD2HfIjKCHyCFKvJaQpnR13Fquc="
 },
 "signs_required": 1,
 "title": "\u652f\u7eb3\u7ef4\u57fa\u955c\u50cf\u7ad9",
 "translate": ["js/all.js"],
 "zeronet_version": "0.6.5"
}